................
----------------------------------------------------------------------
Ran 16 tests in 0.023s

OK
Name             Stmts   Miss Branch BrPart  Cover   Missing
------------------------------------------------------------
Collatz.py          39      1     18      2    95%   59, 58->59, 65->67
TestCollatz.py      66      0      0      0   100%
------------------------------------------------------------
TOTAL              105      1     18      2    98%