1 10 20
100 200 125
201 210 89
900 1000 174
5 5 6
5 30 112
147 148 117
2 534 144
1500 2430 183
658 909 179
1 4000 238
12 12023 268
9 1699 182
2344 14789 276
38 4356 238
789 32345 308
5452 32143 308
345 23456 279
784 2441 183
1092 1093 32
12324 3402 268
23 65 113
234 543 144
2342 9010 262
4500 4678 184
9083 54900 340
8945 9001 247
2784 4448 238
2555 4414 238
3687 4461 238
2035 6171 262
36820 45501 314
48093 48742 265
27952 34625 311
26077 47455 324
21810 40327 324
19802 43195 324
36430 40742 306
9921 15701 276
15683 39029 324
23955 37139 324
23900 36694 324
41809 42869 288
38051 432 324
19304 23894 282
44214 47010 314
21402 30123 308
37573 48673 314
32351 33281 267
20955 34644 311
28129 29401 272
27046 40122 324
3523 12474 268
28174 28496 259
16873 23417 279
48841 7211 324
47503 48018 283
16206 21362 279
11632 32346 308
9982 46978 324
25158 47646 324
49315 49416 265
49076 49120 190
25628 43554 324
24278 47065 324
27208 39657 324
346 6193 262
41743 45878 314
1795 25356 282
20854 46000 324
1328 39013 324
33340 37050 324
45095 45873 314
5664 34614 311
24027 25279 264
28241 41561 324
19443 33894 308
20651 37813 324
5633 39612 324
47549 49078 296
40942 44954 288
38505 46731 314
48383 49717 296
41130 43935 288
6354 38728 324
47763 48760 265
26656 37324 324
28097 40552 324
27515 351 308
28522 32854 285
29947 37089 324
46312 47992 314
11041 18834 279
23669 45962 324
999991 16276 525
49165 49647 296
23148 42121 324
13925 18603 279
49153 49439 265
10241 28652 308
3610 42419 324
21783 27665 308
11648 25413 282
11072 49648 324
32587 43496 324
48695 48880 221
37983 43969 306
14794 35457 311
21377 39769 324
28270 49997 324
896 27431 308
40348 48001 314
41529 43090 288
47497 48673 283
34855 47074 324
6606 38786 324
3726 76824 340
36094 43803 306
23630 42125 324
32508 49940 324
21643 35539 311
31483 42775 324
19642 36943 324
7640 22222 279
9105 19165 279
16772 45011 324
9538 11625 268
16598 16927 266
14907 21333 279
6664 28373 308
999999 1 525
