.....................................
----------------------------------------------------------------------
Ran 37 tests in 0.406s

OK
Name             Stmts   Miss Branch BrPart  Cover   Missing
------------------------------------------------------------
Collatz.py          71      0     32      0   100%
TestCollatz.py     161      0      0      0   100%
------------------------------------------------------------
TOTAL              232      0     32      0   100%
