1 10 20
100 200 125
201 210 89
900 1000 174
350 360 126
483 490 142
495 500 111
360 350 126
490 483 142
500 495 111
934 934 86
23643 23650 145
89075 69065 351
100000 99990 227
25 125 119
250 375 144
500 400 142
600 700 145
900 800 179
1000 1100 169
123456 987654 525
222 444 144
777 999 179
35342 1234 311
2134 1463 180
362 2 144
8976 9000 185
32463 60214 340
953 2 179
2500 125 209
6737 1244 262
777777 777777 155
878 3221 217
5675 12342 268
987 653 179
2356 5422 238
524288 524288 20
7725 8125 252
45735 64353 340
23 32 112
2457 2343 165
548 2354 183
979 698 179
2342 5332 238
98896 99999 328
9867 12500 268
87897 88000 271
98765 43210 351
987 123 179
764 909 179
25 25 24
1 1 1
295 125 128
565 3643 217
865 234 171
3474 2367 217
43754 24577 324
255334 123465 443
432933 985321 525
248453 463224 449
727356 363788 509
463234 643125 509
252344 132345 443
999999 1 525
100 99 26
300 212212 383
212212 300 383
5082 1 238
1 999999 525
100 200 125
99 7584 262
1 74 116
50 51 25
10 5 20
99 2 119
62101 700 340
400 1000 179
100 3985 238
82 74 36
73475 43753 340
2346 2346 121
3856 3475 238
34680 34578 205
6796 4586 262
2 2 2
89 32 116
496839 94854 449
2 4 8
500 1000 179
565 596 119
100 120 114
8 10 20
59404 404 340
92 29848 308
45894 398 324
485 4059 238
5 6 6
3055 49 217
309 409 144
94 49 116
4944 102 238
1029 30 179
435 786 171
30985 498 308
496833 495890 320
4985 102 238
4242 4949 215
498 3905 238
34 56 113
42 10 112
4893 584 238
