.....................
----------------------------------------------------------------------
Ran 21 tests in 0.271s

OK
Name             Stmts   Miss Branch BrPart  Cover   Missing
------------------------------------------------------------
Collatz.py          88      2     52      3    96%   120, 137->exit, 147
TestCollatz.py      86      0      2      0   100%
------------------------------------------------------------
TOTAL              174      2     54      3    98%