......................
----------------------------------------------------------------------
Ran 22 tests in 0.157s

OK
Name             Stmts   Miss Branch BrPart  Cover   Missing
------------------------------------------------------------
Collatz.py          35      0     14      0   100%
TestCollatz.py      92      0      2      0   100%
------------------------------------------------------------
TOTAL              127      0     16      0   100%
